<?xml version="1.0" encoding="utf-8"?>
<!-- Generator: Adobe Illustrator 22.1.0, SVG Export Plug-In . SVG Version: 6.00 Build 0)  -->
<svg version="1.1" id="Layer_1" xmlns="http://www.w3.org/2000/svg" xmlns:xlink="http://www.w3.org/1999/xlink" x="0px" y="0px"
	 viewBox="0 0 20 21.8" style="enable-background:new 0 0 20 21.8;" xml:space="preserve">
<style type="text/css">
	.st0{fill:#FFFFFF;}
</style>
<title>AleFestival</title>
<g>
	<path class="st0" d="M17,4.8h-2V2.2C15,1,14,0,12.8,0H2.2C1,0,0,1,0,2.2v17.4c0,1.2,1,2.2,2.2,2.2h10.6c1.2,0,2.2-1,2.2-2.2v-3.9h2
		c1.6,0,3-1.3,3-3v-5C20,6.1,18.6,4.8,17,4.8z M1,4.3h13v12.9H1V4.3z M2.2,1h10.6C13.4,1,14,1.5,14,2.2v1.1H1V2.2C1,1.5,1.5,1,2.2,1
		z M12.8,20.8H2.2c-0.7,0-1.2-0.5-1.2-1.2v-1.5h13v1.5C14,20.3,13.4,20.8,12.8,20.8z M19,12.7c0,1.1-0.9,2-2,2h-2V5.8h2
		c1.1,0,2,0.9,2,2V12.7z"/>
	<path class="st0" d="M4.1,6.9c-0.3,0-0.5,0.2-0.5,0.5v6.9c0,0.3,0.2,0.5,0.5,0.5s0.5-0.2,0.5-0.5V7.4C4.6,7.1,4.4,6.9,4.1,6.9z"/>
	<path class="st0" d="M7.5,6.9C7.3,6.9,7,7.1,7,7.4v6.9c0,0.3,0.2,0.5,0.5,0.5S8,14.5,8,14.2V7.4C8,7.1,7.8,6.9,7.5,6.9z"/>
	<path class="st0" d="M10.8,6.9c-0.3,0-0.5,0.2-0.5,0.5v6.9c0,0.3,0.2,0.5,0.5,0.5s0.5-0.2,0.5-0.5V7.4C11.3,7.1,11,6.9,10.8,6.9z"
		/>
</g>
</svg>
